0,なし,なし
1,燃え滾る朱(Trial),NULL
2,逆巻く蒼(Trial),NULL
3,萌芽する翠(Trial),NULL
4,エアクッション(Trial),NULL
5,無我の境地(Trial),NULL
6,しなやかな躰(Trial),NULL
7,楽天家(Trial),NULL
8,共鳴(Trial),NULL
9,疾風(Trial),NULL
10,血気盛ん(Trial),NULL
11,メンテナンス(Trial),NULL
12,心眼(Trial),NULL
13,煙幕展開(Trial),NULL
14,幸運(Trial),NULL
15,ポジティブ(Trial),NULL
16,一斉射撃(Trial),NULL
17,アップテンポ(Trial),NULL
18,応急処置(Trial),NULL
19,オートヒーリング(Trial),NULL
20,ＡＢＬ０２０,NULL
21,ＡＢＬ０２１,NULL
22,ＡＢＬ０２２,NULL
23,ＡＢＬ０２３,NULL
24,ＡＢＬ０２４,NULL
25,ＡＢＬ０２５,NULL
26,ＡＢＬ０２６,NULL
27,ＡＢＬ０２７,NULL
28,ＡＢＬ０２８,NULL
29,ＡＢＬ０２９,NULL
30,ＡＢＬ０３０,NULL
31,ＡＢＬ０３１,NULL
32,ＡＢＬ０３２,NULL
33,ＡＢＬ０３３,NULL
34,ＡＢＬ０３４,NULL
35,ＡＢＬ０３５,NULL
36,ＡＢＬ０３６,NULL
37,ＡＢＬ０３７,NULL
38,ＡＢＬ０３８,NULL
39,ＡＢＬ０３９,NULL
40,ＡＢＬ０４０,NULL
41,ＡＢＬ０４１,NULL
42,ＡＢＬ０４２,NULL
43,ＡＢＬ０４３,NULL
44,ＡＢＬ０４４,NULL
45,ＡＢＬ０４５,NULL
46,ＡＢＬ０４６,NULL
47,ＡＢＬ０４７,NULL
48,ＡＢＬ０４８,NULL
49,ＡＢＬ０４９,NULL
50,ＡＢＬ０５０,NULL
51,ＡＢＬ０５１,NULL
52,ＡＢＬ０５２,NULL
53,ＡＢＬ０５３,NULL
54,ＡＢＬ０５４,NULL
55,ＡＢＬ０５５,NULL
56,ＡＢＬ０５６,NULL
57,ＡＢＬ０５７,NULL
58,ＡＢＬ０５８,NULL
59,ＡＢＬ０５９,NULL
60,ＡＢＬ０６０,NULL
61,ＡＢＬ０６１,NULL
62,ＡＢＬ０６２,NULL
63,ＡＢＬ０６３,NULL
64,ＡＢＬ０６４,NULL
65,ＡＢＬ０６５,NULL
66,ＡＢＬ０６６,NULL
67,ＡＢＬ０６７,NULL
68,ＡＢＬ０６８,NULL
69,ＡＢＬ０６９,NULL
70,ＡＢＬ０７０,NULL
71,ＡＢＬ０７１,NULL
72,ＡＢＬ０７２,NULL
73,ＡＢＬ０７３,NULL
74,ＡＢＬ０７４,NULL
75,ＡＢＬ０７５,NULL
76,ＡＢＬ０７６,NULL
77,ＡＢＬ０７７,NULL
78,ＡＢＬ０７８,NULL
79,ＡＢＬ０７９,NULL
80,ＡＢＬ０８０,NULL
81,ＡＢＬ０８１,NULL
82,ＡＢＬ０８２,NULL
83,ＡＢＬ０８３,NULL
84,ＡＢＬ０８４,NULL
85,ＡＢＬ０８５,NULL
86,ＡＢＬ０８６,NULL
87,ＡＢＬ０８７,NULL
88,ＡＢＬ０８８,NULL
89,ＡＢＬ０８９,NULL
90,ＡＢＬ０９０,NULL
91,ＡＢＬ０９１,NULL
92,ＡＢＬ０９２,NULL
93,ＡＢＬ０９３,NULL
94,ＡＢＬ０９４,NULL
95,ＡＢＬ０９５,NULL
96,ＡＢＬ０９６,NULL
97,ＡＢＬ０９７,NULL
98,ＡＢＬ０９８,NULL
99,ＡＢＬ０９９,NULL
100,Phlegmatic,The weather becomes Calm.
101,Sanguine,The weather becomes Aurora.
102,Melancholic,The weather becomes Heavy Fog.
103,Choleric,The weather becomes Dust Storm.
104,Sand Mask,During dust storm, Evasion is increased. No sand damage is received.
105,Sand Force,During dust storm, Fo.Atk is boosted by 30%. No sand damage is received.
106,Sand Devil,During dust storm, Speed is doubled. No sand damage is received.
107,Flash,During aurora, Speed is doubled.
108,Aurora Grace,During aurora, Sp.Def is increased by 50% and some HP is restored at the end of every turn.
109,Light Curtain,During aurora, you're immune to confusion and status ailments are healed at the end of every turn.
110,Fog Traveler,During heavy fog, Speed is doubled.
111,Surprise Tactics,During heavy fog, SpAtk is boosted by 50%. Damage is received at the end of the turn.
112,Vanishing Act,During heavy fog, evasion is increased.
113,Recalibration,During calm, SpAtk and SpDef are boosted by 50%.
114,Zen,During calm, the user is immune to status ailments and recovers some HP at the end of every turn.
115,Breather,During calm, Fo.Def is increased by 50% and some HP is restored at the end of every turn.
116,NULL,なし。
117,Weather Resist,This Puppet is immune to the effects of weather.
118,天気予報,なし。
119,無為自然,なし。
120,Dark Clothing,Resists against Light-type skills and restores HP when hit by a Dark-type skill.
121,Economist,Charms may be restored after use. During calm, you will always restore them.
122,NULL,なし。
123,Burning Spirit,Boosts Fire-type skills when HP is less than 1/3.
124,Surging Spirit,Boosts Water-type skills when HP is less than 1/3.
125,Sprouting Spirit,Boosts Nature-type skills when HP is less than 1/3.
126,Desolate Spirit,Boosts Earth-type skills when HP is less than 1/3.
127,Robust Spirit,Boosts Steel-type skills when HP is less than 1/3.
128,Raging Spirit,Boosts Wind-type skills when HP is less than 1/3.
129,Sparking Spirit,Boosts Electric-type skills when HP is less than 1/3.
130,Rainbow Spirit,Boosts Light-type skills when HP is less than 1/3.
131,Abyssal Spirit,Boosts Dark-type skills when HP is less than 1/3.
132,Sinister Spirit,Boosts Nether-type skills when HP is less than 1/3.
133,Venomous Spirit,Boosts Poison-type skills when HP is less than 1/3.
134,Vigorous Spirit,Boosts Fighting-type skills when HP is less than 1/3.
135,Vague Spirit,Boosts Illusion-type skills when HP is less than 1/3.
136,Musical Spirit,Boosts Sound-type skills when HP is less than 1/3.
137,Corrupt Spirit,Boosts Warped-type skills when HP is less than 1/3.
138,Benefit of Fire,When hit by a Fire-type skill, HP is restored.
139,Grace of Water,When hit by a Water-type skill, HP is restored.
140,Force of Nature,When hit by a Nature-type skill, damage is nullified and SpAtk is raised.
141,Air Cushion,When hit by an Earth-type skill, damage is nullified. Ignores Adverse Wind ability. Ignores mine/poison trap. 
142,Metallurgy,When hit by a Steel-type skill, damage is nullified and FoAtk is raised.
143,Smooth Sailing,When hit by a Wind-type skill, damage is nullified and Speed is raised.
144,Electromagnetic,When hit by an Electric-type skill, damage is nullified and SpAtk is raised.
145,Absorbent,When hit by a Light-type skill, damage is nullified and SpAtk is raised.
146,Negative Aura,When hit by a Dark-type skill, damage is nullified and FoAtk is raised.
147,Appeased Spirit,When hit by a Nether-type skill, HP is restored.
148,Strict Dosage,When hit by a Poison-type skill, HP is restored. Ignores poison trap. Ignores Poison Labyrinth ability.
149,Master's Defense,When hit by a Fighting-type skill, damage is nullified and FoAtk is raised.
150,Unwavering Heart,When hit by an Illusion-type skill, damage is nullified and any status ailment is cured.
151,Sound Absorb,When hit by a Sound-type skill, damage is nullified, FoAtk is raised, and SpAtk is raised.
152,In Sync,When hit by an Warped-type skill, damage is nullified and any status ailment is cured.
153,Spirit of Yang,When hit by an Electric, Light, or Illusion-type skill, Speed is raised.
154,Spirit of Yin,When hit by a Dark, Nether, or Poison-type skill, Speed is raised.
155,Inverse Reaction,When hit by a Light or Dark-type skill only half the damage is taken.
156,Sound Booster,When hit by a Sound-type skill SpAtk is raised.
157,Self Exorcism,When hit by a Nether-type skill FoAtk is raised.
158,Common Senseless,Ignores type immunities when attacking.
159,ＡＢＬ１５９,なし。
160,Shadow Stitch,The opponent cannot flee or swap Puppets.
161,Battle Mania,Opponents that are Fighting-type cannot flee or swap out.
162,Adverse Wind,Only Wind-type opponents can flee.
163,ＡＢＬ１６３,なし。
164,無形之型,なし。
165,Hellfire Form,Void-type skills are treated as Fire-type skills.
166,Stream Form,Void-type skills are treated as Water-type skills.
167,Natural Form,Void-type skills are treated as Nature-type skills.
168,Desolation Form,Void-type skills are treated as Earth-type skills.
169,Unyielding Form,Void-type skills are treated as Steel-type skills.
170,Gale Form,Void-type skills are treated as Wind-type skills.
171,Thunder Form,Void-type skills are treated as Electric-type skills.
172,Bright Form,Void-type skills are treated as Light-type skills.
173,Midnight Form,Void-type skills are treated as Dark-type skills.
174,Ghost Form,Void-type skills are treated as Nether-type skills.
175,Miasma Form,Void-type skills are treated as Poison-type skills.
176,General's Form,Void-type skills are treated as Fighting-type skills.
177,Imaginary Form,Void-type skills are treated as Illusion-type skills.
178,Recital Form,Void-type skills are treated as Sound-type skills.
179,Twisted Form,Void-type skills become treated as Warped-type.
180,Antibody,Immune to Poison and Heavy Poison statuses.
181,Cleared Mind,Immune to Burn and Heavy Burn statuses.
182,Active,Immune to Stop status.
183,Immovable,Immune to flinching.
184,Flexible,Immune to Paralysis and Shock statuses.
185,Optimist,Immune to confusion.
186,Composed,Immune to Upbeat.
187,Free Will,Immune to skill usage restrictions.
188,ＡＢＬ１８８,なし。
189,Resonance,Status ailments are reflected onto opponents when inflicted.
190,Gale,When inflicted with an ailment, Speed is boosted 50%. Speed drop from paralysis is ignored.
191,Last Defense,When inflicted with an ailment, FoDef is boosted by 50%.
192,Desperation,When poisoned, FoAtk is boosted by 50%.
193,Inverse Toxin,When poisoned, HP is restored instead of lost. Ignores Poison Labyrinth ability.
194,Vigorous,Takes half the turns to return from stop status.
195,ＡＢＬ１９５,なし。
196,士気旺盛,なし。
197,Maintenance,30% chance to heal from ailments every turn.
198,Mind's Eye,When inflicted with a status FoAtk is boosted by 50%. FoAtk drop from blindness is ignored.
199,Warning Shot,Lowers the opponent's SpAtk upon switch in.
200,Deploy Smoke,Lowers the opponent's FoAtk upon switch in.
201,Projection,Copies your opponent's ability during battle.
202,Aggressive,Adjusts offensive stats based on the foe's defensive stats.
203,Sixth Sense,Notifies you of barrier-penetrating skills your foe knows.
204,読心,なし。
205,Quick Eye,Allows you to see the held item and ability of the opponent.
206,傾奇者,なし。
207,ＡＢＬ２０７,なし。
208,Some Guts,Damage the opponent after receiving an attack of 90 or more BP.
209,Karmic Retribution,Damage the opponent after receiving an attack of 90 or more BP.
210,Hate Incarnate,Damage the opponent if fainting is caused by an attack of 70 or more BP.
211,Poison Thorns,Opponent has 30% chance to become poisoned from any attack.
212,ＡＢＬ２１２,なし。
213,Flaming Garment,Opponent has a 30% chance to become burned from any attack.
214,Electrification,Opponent has 30% chance to become paralyzed from any attack.
215,Chaos Induction,Opponent has a 30% chance to become confused from any attack.
216,Sermon,Opponent has a 30% chance to become weakened from any attack.
217,Dark Force,Opponent has 10% chance to become blinded from their focus attacks.
218,Strong Smile,Opponent has a 10% chance to become afraid from their spread attacks.
219,ＡＢＬ２１９,なし。
220,Jamming,Reduces the opponent's Speed after receiving an attack of 80 or more BP.
221,Discourager,Reduces the opponent's FoAtk when hit by a skill that your barrier resists.
222,Disturber,Reduces the foe's FoAtk or SpAtk when hit by a skill that your barrier resists.
223,離間,なし。
224,篭絡,なし。
225,ＡＢＬ２２５,なし。
226,Infectious,Spreads Infection through attacks that are below 95 BP.
227,ＡＢＬ２２７,なし。
228,Armor Purge,When hit by a FoAtk, FoDef decreases and Speed increases.
229,ＡＢＬ２２９,なし。
230,ＡＢＬ２３０,なし。
231,Insight,Easier to score critical hits.
232,Sniper,Boosts the strength of critical hits.
233,ＡＢＬ２３３,なし。
234,Hot Head,FoAtk is increased after taking a critical hit.
235,ＡＢＬ２３５,なし。
236,Recoil Offset,Does not receive recoil damage.
237,Reckless,Damage dealt and recoil received by a recoil move is boosted by 20%.
238,ＡＢＬ２３８,なし。
239,ＡＢＬ２３９,なし。
240,ＡＢＬ２４０,なし。
241,ＡＢＬ２４１,なし。
242,ＡＢＬ２４２,なし。
243,ＡＢＬ２４３,なし。
244,ＡＢＬ２４４,なし。
245,Wasteful,Effects of held items are ignored.
246,Nimble,When a held charm is lost or consumed speed is doubled.
247,臨機応変,なし。
248,器用な手先,なし。
249,Kleptomaniac,If no item is held there is a chance to steal an foe's item after attacking.
250,Collectomaniac,If no item is held and you receive damage, you may take the foe's held item. Held items cannot be stolen.
251,ＡＢＬ２５１,なし。
252,Overwhelm,Enemy Puppets cannot use charms.
253,Worrywart,When HP is less than half the held charm is used.
254,ＡＢＬ２５４,なし。
255,Assault,Attacks have a 10% chance of causing flinching.
256,Poison Body,After an attack, the opponent has a 30% chance to become poisoned.
257,Lucky,Secondary effects of skills have double the chance of occurring.
258,Charge!,Attack damage is boosted by 30%, but their secondary effects never occur.
259,ＡＢＬ２５９,なし。
260,一心不乱,なし。
261,Divine Protection,Stats cannot be lowered by the enemy.
262,Sore Loser,When a stat is decreased FoAtk is raised sharply.
263,Positive,When a stat is decreased SpAtk is raised sharply.
264,Usurpation,Inverts the stat changes.
265,Wisdom Eye,Attacks ignore the opponent's stat gains other than speed.
266,ＡＢＬ２６６,なし。
267,Drunkard,Cannot attack consecutively, however it ignores the foe's ability.
268,Placid,For 5 turns SpAtk and Speed are cut in half. Ability changes to ""Serious"", afterwards.
269,True Admin,When HP is less than half FoAtk and SpAtk are halved.
270,ＡＢＬ２７０,なし。
271,Slow Tempo,Always attacks second but receive 10% less damage.
272,Curiosity,Support skills receive +1 to their priority.
273,Brutality,SpAtk is boosted by 50% but accuracy is cut by 20%.
274,Daredevil,FoAtk is boosted by 50% but accuracy is cut by 20%.
275,Forward Dash,The power of spread skills are doubled.
276,ＡＢＬ２７６,Receive only half damage from Focus Attacks.
277,ＡＢＬ２７７,なし。
278,Telescopic,Accuracy is boosted by 30%.
279,Duel,Neither you nor your opponent will be able to miss.
280,Precise Aim,Accuracy cannot be lowered. Ignores the foe's Evasion modifiers. Never-miss attacks are 50% stronger.
281,ＡＢＬ２８１,なし。
282,Infinite Changes,Changes type to match skill immediately before use.
283,擬態,なし。
284,Hobgoblin,Changes appearance to match that of the last Puppet in the party. Reverts after taking a hit.
285,ＡＢＬ２８５,なし。
286,After Move,Attack power is boosted by 30% when moving second.
287,Infiltration,Attacks ignore defensive fields.
288,Salvo,Multi-Hit attacks always hit the maximum amount of times.
289,Niche,The power boost from same-type attacks is even higher.
290,Morale Boost,When an opponent is KO'd, FoAtk is raised.
291,Strategist,Attacks with a base power of 60 or below are boosted by 50%.
292,Skilled Hand,Ignores the resistances of enemy barriers.
293,Unbound,Attacks ignore the foe's ability.
294,Up Tempo,Speed increases every turn.
295,Indomitable,Cannot be OHKO'd. Will not receive critical hits either.
296,Stubborn,Cannot be OHKO'd. Neither of you can use certain skills either.
297,Imposing Stance,Damage is only received from skills.
298,Glamorous,Reduces damage of attacks that penetrate your barrier.
299,Emergency Cure,Recovers from status ailments when switching out.
300,Healing Power,Recovers 1/3 of maximum HP when switching out.
301,Iron Resolve,Cannot be forced to switch out.
302,Peaceful,Can always escape from battle. Trumps other locking abilities.
303,Bad Medicine,Enemies will be hurt when they try to use HP leaching skills on you. Ignores Poison Labyrinth ability.
304,Curse Return,Reflects the effects of status skills back on the attacker.
305,Poker Face,Ignores the secondary skill effects from attackers.
306,Yata no Kagami,Takes half damage when at full HP.
307,Moody,Every turn one random stat rises sharply and one random stat falls.
308,Suppression,When hit by an enemy skill there is a 30% chance to seal it.
309,Unjustness,The enemy's SP consumption is increased by +1.
310,Good Management,Stat changes from skills and hold items are doubled.
311,Were-Hakutaku,When HP is less than half your form is changed.
312,波状攻撃,なし。
313,Frail Health,Take no damage from attacks that do not penetrate the barrier.
314,Flawless,Evasion against status and stat changing skills is increased.
315,Unique Shield,Only receive half damage from Focus Attacks.
316,Auto Heal,HP recovers every turn while not inflicted with a status ailment.
317,Miracle Mallet,FoAtk and FoDef are doubled.
318,Stargazer,Weather skills last forever.
319,Timegazer,Terrain skills last 8 turns.
320,Boundary Blurrer,During weather effects, FoAtk, FoDef, SpAtk, and SpDef are doubled.
321,Boundary Savior,During terrain effects, FoDef and SpDef are doubled. Will also recover from ailments at the end of each turn.
322,ＡＢＬ３２２,NULL
323,Northern Expanse,During Genbu, speed is halved.
324,Southern Expanse,During Suzaku, your HP will recover a little bit each turn, ignoring Suzaku's effect.
325,Western Expanse,During Byakko, 100 acc skills power increases by 20%, no-miss skills power increases by 50%.
326,Eastern Expanse,During Seiryu, same-type skills are 33% stronger.
327,Central Expanse,During Kohryu, your skills ignore the foe's ability. The user may also use held items and Quick Eye.
328,Gentei's Water,Water skills are 50% more powerful during Genbu. Earth-skill damage is halved.
329,Sutei's Fire,Fire skills are 50% more powerful during Suzaku. Water-skill damage is halved.
330,Byakutei's Metal,Steel skills are 50% more powerful during Byakko. Fire-skill damage is halved.
331,Seitei's Wood,Nature skills are 50% more powerful during Seiryu. Steel-skill damage is halved.
332,Koutei's Earth,Earth skills are 50% more powerful during Kohryu. Nature-skill damage is halved.
333,Instant Win,Your speed is increased by 50% on the first turn after entering the field.
334,First Hit,Attack power is boosted by 20% when moving first.
335,Ascertainment,Opponent's Ability does not boost their attacks.
336,Convergence,If you miss a skill, your accuracy increases.
337,On the Edge,At 1 HP, Speed is tripled and attacks do 30% more damage.
338,Invalidate,Removes the opponent's Ability on entry.
339,Pride,SpAtk increases by 50% when statused, ignores SpAtk drop from Fear.
340,Intuition,Blocks increased priority skills.
341,Flat Speed,Lowers increased priority skills to 0 for both sides.
342,Known Limits,Gives and receives less damage from skills that don't match the user's type.
343,Fast Talker,Two-turn skills can be used in one turn.
344,Full Power,Skills are 20% more powerful, but takes damage every turn.
345,Two of a Kind,The power of skills go down by 40%, but you will do an additional attack.
346,Affinity Twist,Both parties super effective and resisted elements are reversed.
347,Normal Bonus,Boosts the power of Void skills by 40%.
348,Flame Bonus,Boosts the power of Fire skills by 40%.
349,Aqua Bonus,Boosts the power of Water skills by 40%.
350,Leaf Bonus,Boosts the power of Nature skills by 40%.
351,Ground Bonus,Boosts the power of Earth skills by 40%.
352,Metal Bonus,Boosts the power of Steel skills by 40%.
353,Gust Bonus,Boosts the power of Wind skills by 40%.
354,Spark Bonus,Boosts the power of Electric skills by 40%.
355,Bright Bonus,Boosts the power of Light skills by 40%.
356,Shade Bonus,Boosts the power of Dark skills by 40%.
357,Soul Bonus,Boosts the power of Nether skills by 40%.
358,Venom Bonus,Boosts the power of Poison skills by 40%.
359,Aura Bonus,Boosts the power of Fighting skills by 40%.
360,Vision Bonus,Boosts the power of Illusion skills by 40%.
361,Music Bonus,Boosts the power of Sound skills by 40%.
362,Twisted Bonus,Boosts the power of Warped skills by 40%.
363,Invigorative,Skills you're immune to will increase your Fo.Atk by one stage.
364,Deflective,Skills you're immune to will increase your Fo.Def and Sp.Def by one stage.
365,Stimulative,Skills you're immune to will increase your Sp.Atk by one stage.
366,Evasive,Skills you're immune to will increase your Sp.Def by one stage.
367,Impulsive,Skills you're immune to will increase your Speed by one stage.
368,Counter Stance,Damages the attacker when hit with a BU skill.
369,Reflect Guard,Damages the attacker when hit with a EN skill.
370,Strange Rainbow,Boosts FoAtk by 30% during Sunshower.
371,Fox's Wedding,Doubles Speed during Sunshower.
372,Divine Festival,Status ailments are cured at the end of every turn during Sunshower.
373,None,None.
374,Disjointed Blow,The power of super effective attacks is increased by 40%.
375,Resurrection (Trial),NULL
376,Restraint,If the foe uses a switch-out skill, they are unable to switch for 2 turns.
377,Bibliophilia,When holding a youma scroll, a certain stat is doubled, and typing and ability is changed.
378,Wariness,Disables skills with 50 or less BP.
379,Mode Shift,Changes form when using attack skills. Reverts using Supernatural Border.
380,Reverse Function,Opponent's stat changes are reversed.
381,Dream World,Stopped opponents take damage every turn.
382,Three Bodies,Form changes based on the class of skills used.
383,Poison Labyrinth,Only Poison-type opponents can flee.
384,Overcompensate,Draining skills absorb 30% more HP.
385,Harassment,When your stats drop, so does the foe. When the foe's stats increase, your stats increase as well.
386,Supine,Changes weather to Sunshower upon switch in.
387,Mindless Dance,2-3 turn skills have no special effects, but are 10% less powerful.
388,ＡＢＬ３８８,NULL
389,Final Form,Boosts same-type skills when HP is less than 1/3.
390,Brute Force,User is able to ignore the foe's ability, but unable to use items.
391,ＡＢＬ３９１,NULL
392,ＡＢＬ３９２,NULL
393,ＡＢＬ３９３,NULL
394,ＡＢＬ３９４,NULL
395,ＡＢＬ３９５,NULL
396,ＡＢＬ３９６,NULL
397,ＡＢＬ３９７,NULL
398,ＡＢＬ３９８,NULL
399,ＡＢＬ３９９,NULL
400,Serious,SpAtk and Speed increase one stage every turn.
401,ＡＢＬ４０１,NULL
402,ＡＢＬ４０２,NULL
403,ＡＢＬ４０３,NULL
404,ＡＢＬ４０４,NULL
405,ＡＢＬ４０５,NULL
406,ＡＢＬ４０６,NULL
407,ＡＢＬ４０７,NULL
408,ＡＢＬ４０８,NULL
409,ＡＢＬ４０９,NULL
410,ＡＢＬ４１０,NULL
411,ＡＢＬ４１１,NULL
412,ＡＢＬ４１２,NULL
413,ＡＢＬ４１３,NULL
414,ＡＢＬ４１４,NULL
415,ＡＢＬ４１５,NULL
416,ＡＢＬ４１６,NULL
417,ＡＢＬ４１７,NULL
418,ＡＢＬ４１８,NULL
419,ＡＢＬ４１９,NULL
420,ＡＢＬ４２０,NULL
421,ＡＢＬ４２１,NULL
422,ＡＢＬ４２２,NULL
423,ＡＢＬ４２３,NULL
424,ＡＢＬ４２４,NULL
425,ＡＢＬ４２５,NULL
426,ＡＢＬ４２６,NULL
427,ＡＢＬ４２７,NULL
428,ＡＢＬ４２８,NULL
429,ＡＢＬ４２９,NULL
430,ＡＢＬ４３０,NULL
431,ＡＢＬ４３１,NULL
432,ＡＢＬ４３２,NULL
433,ＡＢＬ４３３,NULL
434,ＡＢＬ４３４,NULL
435,ＡＢＬ４３５,NULL
436,ＡＢＬ４３６,NULL
437,ＡＢＬ４３７,NULL
438,ＡＢＬ４３８,NULL
439,ＡＢＬ４３９,NULL
440,ＡＢＬ４４０,NULL
441,ＡＢＬ４４１,NULL
442,ＡＢＬ４４２,NULL
443,ＡＢＬ４４３,NULL
444,ＡＢＬ４４４,NULL
445,ＡＢＬ４４５,NULL
446,ＡＢＬ４４６,NULL
447,ＡＢＬ４４７,NULL
448,ＡＢＬ４４８,NULL
449,ＡＢＬ４４９,NULL
450,ＡＢＬ４５０,NULL
451,ＡＢＬ４５１,NULL
452,ＡＢＬ４５２,NULL
453,ＡＢＬ４５３,NULL
454,ＡＢＬ４５４,NULL
455,ＡＢＬ４５５,NULL
456,ＡＢＬ４５６,NULL
457,ＡＢＬ４５７,NULL
458,ＡＢＬ４５８,NULL
459,ＡＢＬ４５９,NULL
460,ＡＢＬ４６０,NULL
461,ＡＢＬ４６１,NULL
462,ＡＢＬ４６２,NULL
463,ＡＢＬ４６３,NULL
464,ＡＢＬ４６４,NULL
465,ＡＢＬ４６５,NULL
466,ＡＢＬ４６６,NULL
467,ＡＢＬ４６７,NULL
468,ＡＢＬ４６８,NULL
469,ＡＢＬ４６９,NULL
470,ＡＢＬ４７０,NULL
471,ＡＢＬ４７１,NULL
472,ＡＢＬ４７２,NULL
473,ＡＢＬ４７３,NULL
474,ＡＢＬ４７４,NULL
475,ＡＢＬ４７５,NULL
476,ＡＢＬ４７６,NULL
477,ＡＢＬ４７７,NULL
478,ＡＢＬ４７８,NULL
479,ＡＢＬ４７９,NULL
480,ＡＢＬ４８０,NULL
481,ＡＢＬ４８１,NULL
482,ＡＢＬ４８２,NULL
483,ＡＢＬ４８３,NULL
484,ＡＢＬ４８４,NULL
485,ＡＢＬ４８５,NULL
486,ＡＢＬ４８６,NULL
487,ＡＢＬ４８７,NULL
488,ＡＢＬ４８８,NULL
489,ＡＢＬ４８９,NULL
490,ＡＢＬ４９０,NULL
491,ＡＢＬ４９１,NULL
492,ＡＢＬ４９２,NULL
493,ＡＢＬ４９３,NULL
494,ＡＢＬ４９４,NULL
495,ＡＢＬ４９５,NULL
496,ＡＢＬ４９６,NULL
497,ＡＢＬ４９７,NULL
498,ＡＢＬ４９８,NULL
499,ＡＢＬ４９９,NULL
500,ＡＢＬ５００,NULL
501,ＡＢＬ５０１,NULL
502,ＡＢＬ５０２,NULL
503,ＡＢＬ５０３,NULL
504,ＡＢＬ５０４,NULL
505,ＡＢＬ５０５,NULL
506,ＡＢＬ５０６,NULL
507,ＡＢＬ５０７,NULL
508,ＡＢＬ５０８,NULL
509,ＡＢＬ５０９,NULL
510,ＡＢＬ５１０,NULL
511,ＡＢＬ５１１,NULL
